@startuml

skinparam monochrome true

class UTILISATEUR {
    
    Id_utilisateur: string
    Nom: string
    Prenom: string
    Mail: string {unique}
    Num_tel: string
    Date de naissance: date

    }
    
class OFFRE { 

}

class DEMANDE {

}



class ADMINISTRATEUR {

    niveau: [1..3]
    

    }


class MESSAGERIE {

    Date: date
    Contenue: string
    
    }
class ANNONCE {

    Num_Annonce: integer {key}
    Titre: string
    Type: {offre, demande}
    Lieu: string
    Date: date
    Description: string
    Prix: float

    }
class TRANSACTION {

    Date: date
    Montant: float
    Num_Transaction: integer {key}
    Méthode: {CB, Paypal, Solde}
    
    }


    

class "COMPTE ARGENT" {

    Num_Compte: integer
    Solde: float
    Devise: string
    
    }
    

class ADRESSE {

    Nom_adresse: string
    CP: integer not null
    Ville: string
    Pays: string
    
    }

class EVALUATION {

    Note: integer [0..5]
    Description: string
    
    }
class PRODUIT {
    Nom: string
    Code: integer 
    Description: string
    Type: {bien,service}
    
    }
    
    

    
UTILISATEUR <|-- ADMINISTRATEUR 
OFFRE --|> ANNONCE
DEMANDE --|> ANNONCE

UTILISATEUR "1" -- "*" ANNONCE : publie
UTILISATEUR "*" -- "*" ANNONCE : parcours
UTILISATEUR "1" -- "1" "COMPTE ARGENT" : possède >
UTILISATEUR "1..*" -- "1" ADRESSE : possède >
UTILISATEUR "2" -- "*" TRANSACTION: realisent >
ADMINISTRATEUR "1..n" -- "0..n" UTILISATEUR: modère >
ANNONCE "1" -- "*" TRANSACTION : < relative à 
OFFRE "1" -- "1" PRODUIT : propose >
DEMANDE "1"-- "1" PRODUIT: demande >
(UTILISATEUR, TRANSACTION)..EVALUATION

UTILISATEUR "1..*" - "1..*" UTILISATEUR
(UTILISATEUR, UTILISATEUR )..MESSAGERIE



    
@enduml